{
  "/Users/emiliefischer/Documents/bachelor/boredk-spotlight": {
    "versionSfCore": null,
    "versionFramework": "4.1.0",
    "isWithinCompose": false,
    "isCompose": false,
    "composeOrgName": null,
    "composeResolverProviders": {},
    "composeServiceName": null,
    "servicePath": "/Users/emiliefischer/Documents/bachelor/boredk-spotlight",
    "serviceConfigFileName": "serverless.yml",
    "service": {
      "service": "boredk-serverless-backend",
      "package": {
        "exclude": [
          "node_modules/**"
        ],
        "artifactsS3KeyDirname": "serverless/boredk-serverless-backend/dev/code-artifacts",
        "artifact": "/Users/emiliefischer/Documents/bachelor/boredk-spotlight/.serverless/boredk-serverless-backend.zip",
        "artifactDirectoryName": "serverless/boredk-serverless-backend/dev/1718117332377-2024-06-11T14:48:52.377Z"
      },
      "provider": {
        "name": "aws",
        "runtime": "nodejs20.x",
        "region": "eu-north-1",
        "stage": "dev",
        "versionFunctions": true,
        "compiledCloudFormationTemplate": {
          "AWSTemplateFormatVersion": "2010-09-09",
          "Description": "The AWS CloudFormation template for this Serverless application",
          "Resources": {
            "ServerlessDeploymentBucket": {
              "Type": "AWS::S3::Bucket",
              "Properties": {
                "BucketEncryption": {
                  "ServerSideEncryptionConfiguration": [
                    {
                      "ServerSideEncryptionByDefault": {
                        "SSEAlgorithm": "AES256"
                      }
                    }
                  ]
                }
              }
            },
            "ServerlessDeploymentBucketPolicy": {
              "Type": "AWS::S3::BucketPolicy",
              "Properties": {
                "Bucket": {
                  "Ref": "ServerlessDeploymentBucket"
                },
                "PolicyDocument": {
                  "Statement": [
                    {
                      "Action": "s3:*",
                      "Effect": "Deny",
                      "Principal": "*",
                      "Resource": [
                        {
                          "Fn::Join": [
                            "",
                            [
                              "arn:",
                              {
                                "Ref": "AWS::Partition"
                              },
                              ":s3:::",
                              {
                                "Ref": "ServerlessDeploymentBucket"
                              },
                              "/*"
                            ]
                          ]
                        },
                        {
                          "Fn::Join": [
                            "",
                            [
                              "arn:",
                              {
                                "Ref": "AWS::Partition"
                              },
                              ":s3:::",
                              {
                                "Ref": "ServerlessDeploymentBucket"
                              }
                            ]
                          ]
                        }
                      ],
                      "Condition": {
                        "Bool": {
                          "aws:SecureTransport": false
                        }
                      }
                    }
                  ]
                }
              }
            },
            "GetProductsLogGroup": {
              "Type": "AWS::Logs::LogGroup",
              "Properties": {
                "LogGroupName": "/aws/lambda/boredk-serverless-backend-dev-getProducts"
              }
            },
            "IamRoleLambdaExecution": {
              "Type": "AWS::IAM::Role",
              "Properties": {
                "AssumeRolePolicyDocument": {
                  "Version": "2012-10-17",
                  "Statement": [
                    {
                      "Effect": "Allow",
                      "Principal": {
                        "Service": [
                          "lambda.amazonaws.com"
                        ]
                      },
                      "Action": [
                        "sts:AssumeRole"
                      ]
                    }
                  ]
                },
                "Policies": [
                  {
                    "PolicyName": {
                      "Fn::Join": [
                        "-",
                        [
                          "boredk-serverless-backend",
                          "dev",
                          "lambda"
                        ]
                      ]
                    },
                    "PolicyDocument": {
                      "Version": "2012-10-17",
                      "Statement": [
                        {
                          "Effect": "Allow",
                          "Action": [
                            "logs:CreateLogStream",
                            "logs:CreateLogGroup",
                            "logs:TagResource"
                          ],
                          "Resource": [
                            {
                              "Fn::Sub": "arn:${AWS::Partition}:logs:${AWS::Region}:${AWS::AccountId}:log-group:/aws/lambda/boredk-serverless-backend-dev*:*"
                            }
                          ]
                        },
                        {
                          "Effect": "Allow",
                          "Action": [
                            "logs:PutLogEvents"
                          ],
                          "Resource": [
                            {
                              "Fn::Sub": "arn:${AWS::Partition}:logs:${AWS::Region}:${AWS::AccountId}:log-group:/aws/lambda/boredk-serverless-backend-dev*:*:*"
                            }
                          ]
                        }
                      ]
                    }
                  }
                ],
                "Path": "/",
                "RoleName": {
                  "Fn::Join": [
                    "-",
                    [
                      "boredk-serverless-backend",
                      "dev",
                      {
                        "Ref": "AWS::Region"
                      },
                      "lambdaRole"
                    ]
                  ]
                }
              }
            },
            "GetProductsLambdaFunction": {
              "Type": "AWS::Lambda::Function",
              "Properties": {
                "Code": {
                  "S3Bucket": {
                    "Ref": "ServerlessDeploymentBucket"
                  },
                  "S3Key": "serverless/boredk-serverless-backend/dev/1718117332377-2024-06-11T14:48:52.377Z/boredk-serverless-backend.zip"
                },
                "Handler": "src/productsDataRoute.handler",
                "Runtime": "nodejs20.x",
                "FunctionName": "boredk-serverless-backend-dev-getProducts",
                "MemorySize": 1024,
                "Timeout": 6,
                "Role": {
                  "Fn::GetAtt": [
                    "IamRoleLambdaExecution",
                    "Arn"
                  ]
                }
              },
              "DependsOn": [
                "GetProductsLogGroup"
              ]
            },
            "GetProductsLambdaVersionaImobELkzopYWdaLv0zSPkHVzemXSPWWBxoEp0iNTIE": {
              "Type": "AWS::Lambda::Version",
              "DeletionPolicy": "Retain",
              "Properties": {
                "FunctionName": {
                  "Ref": "GetProductsLambdaFunction"
                },
                "CodeSha256": "YmhXtRHNV6Ww08rGcdOmpIsjYV2ZmmGIt/9CwiIEKQ0="
              }
            },
            "ApiGatewayRestApi": {
              "Type": "AWS::ApiGateway::RestApi",
              "Properties": {
                "Name": "dev-boredk-serverless-backend",
                "EndpointConfiguration": {
                  "Types": [
                    "EDGE"
                  ]
                },
                "Policy": ""
              }
            },
            "ApiGatewayResourceProductsdata": {
              "Type": "AWS::ApiGateway::Resource",
              "Properties": {
                "ParentId": {
                  "Fn::GetAtt": [
                    "ApiGatewayRestApi",
                    "RootResourceId"
                  ]
                },
                "PathPart": "productsData",
                "RestApiId": {
                  "Ref": "ApiGatewayRestApi"
                }
              }
            },
            "ApiGatewayMethodProductsdataGet": {
              "Type": "AWS::ApiGateway::Method",
              "Properties": {
                "HttpMethod": "GET",
                "RequestParameters": {},
                "ResourceId": {
                  "Ref": "ApiGatewayResourceProductsdata"
                },
                "RestApiId": {
                  "Ref": "ApiGatewayRestApi"
                },
                "ApiKeyRequired": "<REDACTED>",
                "AuthorizationType": "NONE",
                "Integration": {
                  "IntegrationHttpMethod": "POST",
                  "Type": "AWS_PROXY",
                  "Uri": {
                    "Fn::Join": [
                      "",
                      [
                        "arn:",
                        {
                          "Ref": "AWS::Partition"
                        },
                        ":apigateway:",
                        {
                          "Ref": "AWS::Region"
                        },
                        ":lambda:path/2015-03-31/functions/",
                        {
                          "Fn::GetAtt": [
                            "GetProductsLambdaFunction",
                            "Arn"
                          ]
                        },
                        "/invocations"
                      ]
                    ]
                  }
                },
                "MethodResponses": []
              },
              "DependsOn": [
                "GetProductsLambdaPermissionApiGateway"
              ]
            },
            "ApiGatewayDeployment1718117329963": {
              "Type": "AWS::ApiGateway::Deployment",
              "Properties": {
                "RestApiId": {
                  "Ref": "ApiGatewayRestApi"
                },
                "StageName": "dev"
              },
              "DependsOn": [
                "ApiGatewayMethodProductsdataGet"
              ]
            },
            "GetProductsLambdaPermissionApiGateway": {
              "Type": "AWS::Lambda::Permission",
              "Properties": {
                "FunctionName": {
                  "Fn::GetAtt": [
                    "GetProductsLambdaFunction",
                    "Arn"
                  ]
                },
                "Action": "lambda:InvokeFunction",
                "Principal": "apigateway.amazonaws.com",
                "SourceArn": {
                  "Fn::Join": [
                    "",
                    [
                      "arn:",
                      {
                        "Ref": "AWS::Partition"
                      },
                      ":execute-api:",
                      {
                        "Ref": "AWS::Region"
                      },
                      ":",
                      {
                        "Ref": "AWS::AccountId"
                      },
                      ":",
                      {
                        "Ref": "ApiGatewayRestApi"
                      },
                      "/*/*"
                    ]
                  ]
                }
              }
            }
          },
          "Outputs": {
            "ServerlessDeploymentBucketName": {
              "Value": {
                "Ref": "ServerlessDeploymentBucket"
              },
              "Export": {
                "Name": "sls-boredk-serverless-backend-dev-ServerlessDeploymentBucketName"
              }
            },
            "GetProductsLambdaFunctionQualifiedArn": {
              "Description": "Current Lambda function version",
              "Value": {
                "Ref": "GetProductsLambdaVersionaImobELkzopYWdaLv0zSPkHVzemXSPWWBxoEp0iNTIE"
              },
              "Export": {
                "Name": "sls-boredk-serverless-backend-dev-GetProductsLambdaFunctionQualifiedArn"
              }
            },
            "ServiceEndpoint": {
              "Description": "URL of the service endpoint",
              "Value": {
                "Fn::Join": [
                  "",
                  [
                    "https://",
                    {
                      "Ref": "ApiGatewayRestApi"
                    },
                    ".execute-api.",
                    {
                      "Ref": "AWS::Region"
                    },
                    ".",
                    {
                      "Ref": "AWS::URLSuffix"
                    },
                    "/dev"
                  ]
                ]
              },
              "Export": {
                "Name": "sls-boredk-serverless-backend-dev-ServiceEndpoint"
              }
            }
          }
        },
        "coreCloudFormationTemplate": {
          "AWSTemplateFormatVersion": "2010-09-09",
          "Description": "The AWS CloudFormation template for this Serverless application",
          "Resources": {
            "ServerlessDeploymentBucket": {
              "Type": "AWS::S3::Bucket",
              "Properties": {
                "BucketEncryption": {
                  "ServerSideEncryptionConfiguration": [
                    {
                      "ServerSideEncryptionByDefault": {
                        "SSEAlgorithm": "AES256"
                      }
                    }
                  ]
                }
              }
            },
            "ServerlessDeploymentBucketPolicy": {
              "Type": "AWS::S3::BucketPolicy",
              "Properties": {
                "Bucket": {
                  "Ref": "ServerlessDeploymentBucket"
                },
                "PolicyDocument": {
                  "Statement": [
                    {
                      "Action": "s3:*",
                      "Effect": "Deny",
                      "Principal": "*",
                      "Resource": [
                        {
                          "Fn::Join": [
                            "",
                            [
                              "arn:",
                              {
                                "Ref": "AWS::Partition"
                              },
                              ":s3:::",
                              {
                                "Ref": "ServerlessDeploymentBucket"
                              },
                              "/*"
                            ]
                          ]
                        },
                        {
                          "Fn::Join": [
                            "",
                            [
                              "arn:",
                              {
                                "Ref": "AWS::Partition"
                              },
                              ":s3:::",
                              {
                                "Ref": "ServerlessDeploymentBucket"
                              }
                            ]
                          ]
                        }
                      ],
                      "Condition": {
                        "Bool": {
                          "aws:SecureTransport": false
                        }
                      }
                    }
                  ]
                }
              }
            }
          },
          "Outputs": {
            "ServerlessDeploymentBucketName": {
              "Value": {
                "Ref": "ServerlessDeploymentBucket"
              }
            }
          }
        },
        "vpc": {}
      },
      "functions": {
        "getProducts": {
          "handler": "src/productsDataRoute.handler",
          "events": [
            {
              "http": {
                "path": "productsData",
                "method": "get",
                "integration": "AWS_PROXY"
              }
            }
          ],
          "name": "boredk-serverless-backend-dev-getProducts",
          "package": {},
          "memory": 1024,
          "timeout": 6,
          "runtime": "nodejs20.x",
          "vpc": {},
          "versionLogicalId": "GetProductsLambdaVersionaImobELkzopYWdaLv0zSPkHVzemXSPWWBxoEp0iNTIE"
        }
      }
    },
    "serviceRawFile": "service: boredk-serverless-backend\n\npackage:\n  exclude:\n    - node_modules/**\n\nprovider:\n  name: aws\n  runtime: nodejs20.x\n  region: eu-north-1\n\nfunctions:\n  getProducts:\n    handler: src/productsDataRoute.handler\n    events:\n      - http:\n          path: productsData\n          method: get\n",
    "command": [
      "deploy"
    ],
    "options": {},
    "error": null,
    "params": {},
    "machineId": "62b7611de32a0f0599fe95b4852ca06c",
    "accessKeyV2": "<REDACTED>",
    "accessKeyV1": "<REDACTED>",
    "orgId": "2fccb123-99de-4c4f-a55b-1feb809e165f",
    "orgName": "boredk",
    "userId": "PzhK8QLtJlXn0KHKsx",
    "dashboard": {
      "isEnabledForService": false,
      "requiredAuthentication": false,
      "orgFeaturesInUse": null,
      "orgObservabilityIntegrations": null,
      "serviceAppId": null,
      "serviceProvider": null,
      "instanceParameters": null
    },
    "userName": "boredk",
    "subscription": null,
    "userEmail": "emiliefdhansen@hotmail.com",
    "serviceProviderAwsCredentials": "<REDACTED>",
    "serviceProviderAwsAccountId": "211125493059",
    "versionSf": "4.1.0",
    "serviceProviderAwsCfStackName": "boredk-serverless-backend-dev",
    "serviceProviderAwsCfStackId": "arn:aws:cloudformation:eu-north-1:211125493059:stack/boredk-serverless-backend-dev/b607efb0-27fc-11ef-8f36-06a48ddc796d",
    "serviceProviderAwsCfStackCreated": "2024-06-11T14:13:01.182Z",
    "serviceProviderAwsCfStackUpdated": "2024-06-11T14:49:01.096Z",
    "serviceProviderAwsCfStackStatus": "UPDATE_COMPLETE",
    "serviceProviderAwsCfStackOutputs": [
      {
        "OutputKey": "ServiceEndpoint",
        "OutputValue": "https://ax0evkvfq9.execute-api.eu-north-1.amazonaws.com/dev",
        "Description": "URL of the service endpoint",
        "ExportName": "sls-boredk-serverless-backend-dev-ServiceEndpoint"
      },
      {
        "OutputKey": "ServerlessDeploymentBucketName",
        "OutputValue": "boredk-serverless-backend-serverlessdeploymentbuck-12eitjrcmzyx",
        "ExportName": "sls-boredk-serverless-backend-dev-ServerlessDeploymentBucketName"
      },
      {
        "OutputKey": "GetProductsLambdaFunctionQualifiedArn",
        "OutputValue": "arn:aws:lambda:eu-north-1:211125493059:function:boredk-serverless-backend-dev-getProducts:3",
        "Description": "Current Lambda function version",
        "ExportName": "sls-boredk-serverless-backend-dev-GetProductsLambdaFunctionQualifiedArn"
      }
    ]
  }
}